{
  "project_info": {
    "project_number": "204653906456",
    "firebase_url": "https://palpiteiros-soccer-fc.firebaseio.com",
    "project_id": "palpiteiros-soccer-fc",
    "storage_bucket": "palpiteiros-soccer-fc.appspot.com"
  },
  "client": [
    {
      "client_info": {
        "mobilesdk_app_id": "1:204653906456:android:38fd1260744defba",
        "android_client_info": {
          "package_name": "br.com.gruponeutron.palpiteirossoccerfc"
        }
      },
      "oauth_client": [
        {
          "client_id": "204653906456-svhfg2sf5nvon187v90vdc73envm6pfr.apps.googleusercontent.com",
          "client_type": 1,
          "android_info": {
            "package_name": "br.com.gruponeutron.palpiteirossoccerfc",
            "certificate_hash": "62a5a7c90737fea9b7f32032e8ae14ecc437bfd7"
          }
        },
        {
          "client_id": "204653906456-a1oui4ojhhlbj6uhbooocv65kpbilgk6.apps.googleusercontent.com",
          "client_type": 3
        }
      ],
      "api_key": [
        {
          "current_key": "AIzaSyAk1bDfo9m_4NVvVMb44OgawBvFXlUo8Tg"
        }
      ],
      "services": {
        "analytics_service": {
          "status": 1
        },
        "appinvite_service": {
          "status": 2,
          "other_platform_oauth_client": [
            {
              "client_id": "204653906456-a1oui4ojhhlbj6uhbooocv65kpbilgk6.apps.googleusercontent.com",
              "client_type": 3
            }
          ]
        },
        "ads_service": {
          "status": 2
        }
      }
    },
    {
      "client_info": {
        "mobilesdk_app_id": "1:204653906456:android:365f2e674419060b",
        "android_client_info": {
          "package_name": "br.com.grupogfw.psfcadm"
        }
      },
      "oauth_client": [
        {
          "client_id": "204653906456-hg48qkle5mcahp26o70n0ftimvni8gpk.apps.googleusercontent.com",
          "client_type": 1,
          "android_info": {
            "package_name": "br.com.grupogfw.psfcadm",
            "certificate_hash": "62a5a7c90737fea9b7f32032e8ae14ecc437bfd7"
          }
        },
        {
          "client_id": "204653906456-a1oui4ojhhlbj6uhbooocv65kpbilgk6.apps.googleusercontent.com",
          "client_type": 3
        }
      ],
      "api_key": [
        {
          "current_key": "AIzaSyAk1bDfo9m_4NVvVMb44OgawBvFXlUo8Tg"
        }
      ],
      "services": {
        "analytics_service": {
          "status": 1
        },
        "appinvite_service": {
          "status": 2,
          "other_platform_oauth_client": [
            {
              "client_id": "204653906456-a1oui4ojhhlbj6uhbooocv65kpbilgk6.apps.googleusercontent.com",
              "client_type": 3
            }
          ]
        },
        "ads_service": {
          "status": 2
        }
      }
    }
  ],
  "configuration_version": "1"
}